Using visualizations in R to explore data
…
```
# A tibble: 1 × 2
  mean_ht mean_ms
    <dbl>   <dbl>
1    174.    97.3
```

```r
starwars %>% group_by(species) %>% avg_height_mass
```

```
# A tibble: 38 × 3
   species   mean_ht mean_ms
   <chr>       <dbl>   <dbl>
 1 Aleena        79     15  
 2 Besalisk     198    102  
 3 Cerean       198     82  
 4 Chagrian     196    NaN  
 5 Clawdite     168     55  
 6 Droid        131.    69.8
 7 Dug          112     40  
 8 Ewok          88     20  
 9 Geonosian    183     80  
10 Gungan       209.    74  
# … with 28 more rows
```
…
# Mutate across()
.panel1-mutate_across-rotate[

```r
ds <- starwars %>% select(-where(is.list))
*ds
```
]
 
.panel2-mutate_across-rotate[

```
# A tibble: 87 × 11
   name    height  mass hair_color  skin_color eye_color birth_year sex   gender
   <chr>    <int> <dbl> <chr>       <chr>      <chr>          <dbl> <chr> <chr> 
 1 Luke S…    172    77 blond       fair       blue            19   male  mascu…
 2 C-3PO      167    75 <NA>        gold       yellow         112   none  mascu…
 3 R2-D2       96    32 <NA>        white, bl… red             33   none  mascu…
 4 Darth …    202   136 none        white      yellow          41.9 male  mascu…
 5 Leia O…    150    49 brown       light      brown           19   fema… femin…
 6 Owen L…    178   120 brown, grey light      blue            52   male  mascu…
 7 Beru W…    165    75 brown       light      blue            47   fema… femin…
 8 R5-D4       97    32 <NA>        white, red red             NA   none  mascu…
 9 Biggs …    183    84 black       light      brown           24   male  mascu…
10 Obi-Wa…    182    77 auburn, wh… fair       blue-gray       57   male  mascu…
# … with 77 more rows, and 2 more variables: homeworld <chr>, species <chr>
```
…
# Mutate across()
.panel1-mutate_across-rotate[

```r
ds <- starwars %>% select(-where(is.list))
*ds %>% mutate(across(everything(), as.character))
```
]
 
.panel2-mutate_across-rotate[

```
# A tibble: 87 × 11
   name    height mass  hair_color  skin_color eye_color birth_year sex   gender
   <chr>   <chr>  <chr> <chr>       <chr>      <chr>     <chr>      <chr> <chr> 
 1 Luke S… 172    77    blond       fair       blue      19         male  mascu…
 2 C-3PO   167    75    <NA>        gold       yellow    112        none  mascu…
 3 R2-D2   96     32    <NA>        white, bl… red       33         none  mascu…
 4 Darth … 202    136   none        white      yellow    41.9       male  mascu…
 5 Leia O… 150    49    brown       light      brown     19         fema… femin…
 6 Owen L… 178    120   brown, grey light      blue      52         male  mascu…
 7 Beru W… 165    75    brown       light      blue      47         fema… femin…
 8 R5-D4   97     32    <NA>        white, red red       <NA>       none  mascu…
 9 Biggs … 183    84    black       light      brown     24         male  mascu…
10 Obi-Wa… 182    77    auburn, wh… fair       blue-gray 57         male  mascu…
# … with 77 more rows, and 2 more variables: homeworld <chr>, species <chr>
```
…
# Mutate across()
.panel1-mutate_across-rotate[

```r
ds <- starwars %>% select(-where(is.list))
*ds %>% mutate(across(c("height", "mass"), round))
```
]
 
.panel2-mutate_across-rotate[

```
# A tibble: 87 × 11
   name    height  mass hair_color  skin_color eye_color birth_year sex   gender
   <chr>    <dbl> <dbl> <chr>       <chr>      <chr>          <dbl> <chr> <chr> 
 1 Luke S…    172    77 blond       fair       blue            19   male  mascu…
 2 C-3PO      167    75 <NA>        gold       yellow         112   none  mascu…
 3 R2-D2       96    32 <NA>        white, bl… red             33   none  mascu…
 4 Darth …    202   136 none        white      yellow          41.9 male  mascu…
 5 Leia O…    150    49 brown       light      brown           19   fema… femin…
 6 Owen L…    178   120 brown, grey light      blue            52   male  mascu…
 7 Beru W…    165    75 brown       light      blue            47   fema… femin…
 8 R5-D4       97    32 <NA>        white, red red             NA   none  mascu…
 9 Biggs …    183    84 black       light      brown           24   male  mascu…
10 Obi-Wa…    182    77 auburn, wh… fair       blue-gray       57   male  mascu…
# … with 77 more rows, and 2 more variables: homeworld <chr>, species <chr>
```
…
# Mutate across()
.panel1-mutate_across-rotate[

```r
ds <- starwars %>% select(-where(is.list))
*ds %>% mutate(across(where(is.numeric), round))
```
]
 
.panel2-mutate_across-rotate[

```
# A tibble: 87 × 11
   name    height  mass hair_color  skin_color eye_color birth_year sex   gender
   <chr>    <dbl> <dbl> <chr>       <chr>      <chr>          <dbl> <chr> <chr> 
 1 Luke S…    172    77 blond       fair       blue              19 male  mascu…
 2 C-3PO      167    75 <NA>        gold       yellow           112 none  mascu…
 3 R2-D2       96    32 <NA>        white, bl… red               33 none  mascu…
 4 Darth …    202   136 none        white      yellow            42 male  mascu…
 5 Leia O…    150    49 brown       light      brown             19 fema… femin…
 6 Owen L…    178   120 brown, grey light      blue              52 male  mascu…
 7 Beru W…    165    75 brown       light      blue              47 fema… femin…
 8 R5-D4       97    32 <NA>        white, red red               NA none  mascu…
 9 Biggs …    183    84 black       light      brown             24 male  mascu…
10 Obi-Wa…    182    77 auburn, wh… fair       blue-gray         57 male  mascu…
# … with 77 more rows, and 2 more variables: homeworld <chr>, species <chr>
```
…
# Mutate across()
.panel1-mutate_across-rotate[

```r
ds <- starwars %>% select(-where(is.list))
*ds %>% mutate(across(where(is.numeric), round, .names = "{.col}_rounded"))
```
]
 
.panel2-mutate_across-rotate[

```
# A tibble: 87 × 14
   name    height  mass hair_color  skin_color eye_color birth_year sex   gender
   <chr>    <int> <dbl> <chr>       <chr>      <chr>          <dbl> <chr> <chr> 
 1 Luke S…    172    77 blond       fair       blue            19   male  mascu…
 2 C-3PO      167    75 <NA>        gold       yellow         112   none  mascu…
 3 R2-D2       96    32 <NA>        white, bl… red             33   none  mascu…
 4 Darth …    202   136 none        white      yellow          41.9 male  mascu…
 5 Leia O…    150    49 brown       light      brown           19   fema… femin…
 6 Owen L…    178   120 brown, grey light      blue            52   male  mascu…
 7 Beru W…    165    75 brown       light      blue            47   fema… femin…
 8 R5-D4       97    32 <NA>        white, red red             NA   none  mascu…
 9 Biggs …    183    84 black       light      brown           24   male  mascu…
10 Obi-Wa…    182    77 auburn, wh… fair       blue-gray       57   male  mascu…
# … with 77 more rows, and 5 more variables: homeworld <chr>, species <chr>,
#   height_rounded <dbl>, mass_rounded <dbl>, birth_year_rounded <dbl>
```
…
# Mutate across()
.panel1-mutate_across-rotate[

```r
ds <- starwars %>% select(-where(is.list))
*ds %>% mutate(across(where(is.numeric), ~ .x *100))
```
]
 
.panel2-mutate_across-rotate[

```
# A tibble: 87 × 11
   name    height  mass hair_color  skin_color eye_color birth_year sex   gender
   <chr>    <dbl> <dbl> <chr>       <chr>      <chr>          <dbl> <chr> <chr> 
 1 Luke S…  17200  7700 blond       fair       blue            1900 male  mascu…
 2 C-3PO    16700  7500 <NA>        gold       yellow         11200 none  mascu…
 3 R2-D2     9600  3200 <NA>        white, bl… red             3300 none  mascu…
 4 Darth …  20200 13600 none        white      yellow          4190 male  mascu…
 5 Leia O…  15000  4900 brown       light      brown           1900 fema… femin…
 6 Owen L…  17800 12000 brown, grey light      blue            5200 male  mascu…
 7 Beru W…  16500  7500 brown       light      blue            4700 fema… femin…
 8 R5-D4     9700  3200 <NA>        white, red red               NA none  mascu…
 9 Biggs …  18300  8400 black       light      brown           2400 male  mascu…
10 Obi-Wa…  18200  7700 auburn, wh… fair       blue-gray       5700 male  mascu…
# … with 77 more rows, and 2 more variables: homeworld <chr>, species <chr>
```
…
# Mutate across()
.panel1-mutate_across-rotate[

```r
ds <- starwars %>% select(-where(is.list))
*ds %>% mutate(across(ends_with("color"), ~ str_remove_all(.x, "[:punct:]")))
```
]
 
.panel2-mutate_across-rotate[

```
# A tibble: 87 × 11
   name     height  mass hair_color skin_color eye_color birth_year sex   gender
   <chr>     <int> <dbl> <chr>      <chr>      <chr>          <dbl> <chr> <chr> 
 1 Luke Sk…    172    77 blond      fair       blue            19   male  mascu…
 2 C-3PO       167    75 <NA>       gold       yellow         112   none  mascu…
 3 R2-D2        96    32 <NA>       white blue red             33   none  mascu…
 4 Darth V…    202   136 none       white      yellow          41.9 male  mascu…
 5 Leia Or…    150    49 brown      light      brown           19   fema… femin…
 6 Owen La…    178   120 brown grey light      blue            52   male  mascu…
 7 Beru Wh…    165    75 brown      light      blue            47   fema… femin…
 8 R5-D4        97    32 <NA>       white red  red             NA   none  mascu…
 9 Biggs D…    183    84 black      light      brown           24   male  mascu…
10 Obi-Wan…    182    77 auburn wh… fair       bluegray        57   male  mascu…
# … with 77 more rows, and 2 more variables: homeworld <chr>, species <chr>
```
…
